Mini-Project-4 – STAT_326_Final_Portfolio
…
2) Informative Prior based on clay-court match the two played in the previous year (Nadal won 46 out of 66 points on his serve. The standard error of this estimate is 0.05657)

Since we know he won 46 our of 66 points, we find that his probability of winning, or as we called it target mean, is 44/66. We also know our target variance is 0.05657^2 since our standard error is 0.05657. We use the following code to calculate the best alpha and beta that give us our target mean and target variance.

target_mean <- 44/66
alphas <- seq(0.1, 55, length.out = 500)
betas <- ((22/66)*alphas) / (44/66)
param_df <- tibble(alphas, betas)
param_df <- param_df |> mutate(vars = (alphas*betas) / ((alphas+betas)^2 * (alphas +betas+1)))

target_var <- 0.05657^2
param_df <- param_df |> mutate(dist_to_target = abs(vars - target_var))
param_df

# A tibble: 500 × 4
   alphas betas   vars dist_to_target
    <dbl> <dbl>  <dbl>          <dbl>
 1  0.1   0.05  0.193          0.190 
 2  0.210 0.105 0.169          0.166 
 3  0.320 0.160 0.150          0.147 
 4  0.430 0.215 0.135          0.132 
 5  0.540 0.270 0.123          0.120 
 6  0.650 0.325 0.113          0.109 
 7  0.760 0.380 0.104          0.101 
 8  0.870 0.435 0.0964         0.0932
 9  0.980 0.490 0.0900         0.0868
10  1.09  0.545 0.0843         0.0811
# ℹ 490 more rows
…
