Mini-Project-1 – STAT_326_Final_Portfolio
…
[1] 8.549541

nsim <- 5000 # number of simulations
## code to map through the function.
## the \(i) syntax says to just repeat the generate_samp_min function
## nsim times
mins <- map_dbl(1:nsim, \(i) generate_samp_min(mu = mu, sigma = sigma, n = n))
## print some of the 5000 mins
## each number represents the sample min from __one__ sample.
mins_df <- tibble(mins)
mins_df

# A tibble: 5,000 × 1
    mins
   <dbl>
 1  9.19
 2  6.66
 3  7.33
 4  6.56
 5  6.71
 6  7.79
 7  7.47
 8  7.31
 9  7.03
10  9.51
# ℹ 4,990 more rows
…
[1] 12.84016

nsim <- 5000 # number of simulations
## code to map through the function.
## the \(i) syntax says to just repeat the generate_samp_max function
## nsim times
maxs <- map_dbl(1:nsim, \(i) generate_samp_max(mu = mu, sigma = sigma, n = n))
## print some of the 5000 maxs
## each number represents the sample max from __one__ sample.
maxs_df <- tibble(maxs)
maxs_df

# A tibble: 5,000 × 1
    maxs
   <dbl>
 1  15.4
 2  12.6
 3  13.8
 4  12.4
 5  12.6
 6  10.4
 7  13.6
 8  14.2
 9  13.4
10  12.6
# ℹ 4,990 more rows
…
[1] 7.863119

nsim <- 5000 # number of simulations
## code to map through the function.
## the \(i) syntax says to just repeat the generate_samp_min function
## nsim times
mins <- map_dbl(1:nsim, \(i) generate_samp_min(theta1 = theta1, theta2 = theta2, n = n))
## print some of the 5000 mins
## each number represents the sample min from __one__ sample.
mins_df <- tibble(mins)
mins_df

# A tibble: 5,000 × 1
    mins
   <dbl>
 1  7.24
 2  7.51
 3  7.06
 4  8.10
 5 11.0 
 6  8.05
 7  9.16
 8  8.08
 9  7.83
10  7.11
# ℹ 4,990 more rows
…
[1] 12.7376

nsim <- 5000 # number of simulations
## code to map through the function.
## the \(i) syntax says to just repeat the generate_samp_max function
## nsim times
maxs <- map_dbl(1:nsim, \(i) generate_samp_max(theta1 = theta1, theta2 = theta2, n = n))
## print some of the 5000 mins
## each number represents the sample max from __one__ sample.
maxs_df <- tibble(maxs)
maxs_df

# A tibble: 5,000 × 1
    maxs
   <dbl>
 1  13.0
 2  12.0
 3  12.7
 4  10.0
 5  12.1
 6  11.3
 7  12.6
 8  12.5
 9  12.5
10  11.5
# ℹ 4,990 more rows
…
[1] 0.8510727

nsim <- 5000 # number of simulations
## code to map through the function.
## the \(i) syntax says to just repeat the generate_samp_min function
## nsim times
mins <- map_dbl(1:nsim, \(i) generate_samp_min(lambda = lambda, n = n))
## print some of the 5000 mins
## each number represents the sample min from __one__ sample.
mins_df <- tibble(mins)
mins_df

# A tibble: 5,000 × 1
     mins
    <dbl>
 1 0.512 
 2 0.0375
 3 0.123 
 4 0.0912
 5 0.108 
 6 0.0504
 7 0.127 
 8 0.153 
 9 0.102 
10 0.504 
# ℹ 4,990 more rows
…
[1] 2.51232

nsim <- 5000 # number of simulations
## code to map through the function.
## the \(i) syntax says to just repeat the generate_samp_max function
## nsim times
maxs <- map_dbl(1:nsim, \(i) generate_samp_max(lambda = lambda, n = n))
## print some of the 5000 maxs
## each number represents the sample max from __one__ sample.
maxs_df <- tibble(maxs)
maxs_df

# A tibble: 5,000 × 1
    maxs
   <dbl>
 1  4.23
 2  8.00
 3  4.11
 4  2.37
 5  4.05
 6  5.90
 7  5.28
 8  5.89
 9  2.44
10  8.22
# ℹ 4,990 more rows
…
[1] 0.6856087

nsim <- 5000 # number of simulations
## code to map through the function.
## the \(i) syntax says to just repeat the generate_samp_min function
## nsim times
mins <- map_dbl(1:nsim, \(i) generate_samp_min(alpha = alpha, beta = beta, n = n))
## print some of the 5000 mins
## each number represents the sample min from __one__ sample.
mins_df <- tibble(mins)
mins_df

# A tibble: 5,000 × 1
    mins
   <dbl>
 1 0.712
 2 0.517
 3 0.587
 4 0.734
 5 0.731
 6 0.613
 7 0.640
 8 0.598
 9 0.709
10 0.771
# ℹ 4,990 more rows
…
[1] 0.9632449

nsim <- 5000 # number of simulations
## code to map through the function.
## the \(i) syntax says to just repeat the generate_samp_max function
## nsim times
maxs <- map_dbl(1:nsim, \(i) generate_samp_max(alpha = alpha, beta = beta, n = n))
## print some of the 5000 maxs
## each number represents the sample max from __one__ sample.
maxs_df <- tibble(maxs)
maxs_df

# A tibble: 5,000 × 1
    maxs
   <dbl>
 1 0.959
 2 0.914
 3 0.864
 4 0.983
 5 0.933
 6 0.939
 7 0.972
 8 0.921
 9 0.917
10 0.880
# ℹ 4,990 more rows
…
