Mini-Project-3 – STAT_326_Final_Portfolio
…
## define parameters to use in our function
n <- 50 # sample size
p <- 0.46
alpha <- 0.1 # used to construct 1 -alpha CI (how much should be in the tails)

## generate 5000 sample proportions and 5000 associated C.I.
nsim <- 5000 # the number of simulations

many_ci_df <- map(1:nsim,
                  \(i) generate_onesamp_cis(n = n, p = p, alpha = alpha)) |>
  bind_rows()
many_ci_df

# A tibble: 5,000 × 3
   point_est    lb    ub
       <dbl> <dbl> <dbl>
 1      0.48 0.364 0.596
 2      0.5  0.384 0.616
 3      0.56 0.445 0.675
 4      0.3  0.193 0.407
 5      0.44 0.325 0.555
 6      0.4  0.286 0.514
 7      0.6  0.486 0.714
 8      0.54 0.424 0.656
 9      0.44 0.325 0.555
10      0.42 0.305 0.535
# ℹ 4,990 more rows
…
## define parameters to use in our function
n <- 50 # sample size
p <- 0.75
alpha <- 0.1 # used to construct 1 -alpha CI (how much should be in the tails)

## generate 5000 sample proportions and 5000 associated C.I.
nsim <- 5000 # the number of simulations

many_ci_df <- map(1:nsim,
                  \(i) generate_onesamp_cis(n = n, p = p, alpha = alpha)) |>
  bind_rows()
many_ci_df

# A tibble: 5,000 × 3
   point_est    lb    ub
       <dbl> <dbl> <dbl>
 1      0.72 0.616 0.824
 2      0.74 0.638 0.842
 3      0.72 0.616 0.824
 4      0.76 0.661 0.859
 5      0.7  0.593 0.807
 6      0.76 0.661 0.859
 7      0.68 0.571 0.789
 8      0.76 0.661 0.859
 9      0.8  0.707 0.893
10      0.76 0.661 0.859
# ℹ 4,990 more rows
…
## define parameters to use in our function
n <- 5 # sample size
p <- 0.46
alpha <- 0.1 # used to construct 1 -alpha CI (how much should be in the tails)

## generate 5000 sample proportions and 5000 associated C.I.
nsim <- 5000 # the number of simulations

many_ci_df <- map(1:nsim,
                  \(i) generate_onesamp_cis(n = n, p = p, alpha = alpha)) |>
  bind_rows()
many_ci_df

# A tibble: 5,000 × 3
   point_est      lb    ub
       <dbl>   <dbl> <dbl>
 1       0.4  0.0396 0.760
 2       0.4  0.0396 0.760
 3       0.6  0.240  0.960
 4       0.2 -0.0942 0.494
 5       0.2 -0.0942 0.494
 6       0.4  0.0396 0.760
 7       0.2 -0.0942 0.494
 8       0.4  0.0396 0.760
 9       0.8  0.506  1.09 
10       0.6  0.240  0.960
# ℹ 4,990 more rows
…
## define parameters to use in our function
n <- 5 # sample size
p <- 0.75
alpha <- 0.1 # used to construct 1 -alpha CI (how much should be in the tails)

## generate 5000 sample proportions and 5000 associated C.I.
nsim <- 5000 # the number of simulations

many_ci_df <- map(1:nsim,
                  \(i) generate_onesamp_cis(n = n, p = p, alpha = alpha)) |>
  bind_rows()
many_ci_df

# A tibble: 5,000 × 3
   point_est     lb    ub
       <dbl>  <dbl> <dbl>
 1       1   1      1    
 2       0.8 0.506  1.09 
 3       0.8 0.506  1.09 
 4       0.6 0.240  0.960
 5       0.8 0.506  1.09 
 6       0.8 0.506  1.09 
 7       1   1      1    
 8       0.8 0.506  1.09 
 9       0.8 0.506  1.09 
10       0.4 0.0396 0.760
# ℹ 4,990 more rows
…
## define parameters to use in our function
n <- 20 # sample size
p <- 0.46
alpha <- 0.1 # used to construct 1 -alpha CI (how much should be in the tails)

## generate 5000 sample proportions and 5000 associated C.I.
nsim <- 5000 # the number of simulations

many_ci_df <- map(1:nsim,
                  \(i) generate_onesamp_cis(n = n, p = p, alpha = alpha)) |>
  bind_rows()
many_ci_df

# A tibble: 5,000 × 3
   point_est    lb    ub
       <dbl> <dbl> <dbl>
 1      0.5  0.316 0.684
 2      0.55 0.367 0.733
 3      0.35 0.175 0.525
 4      0.65 0.475 0.825
 5      0.35 0.175 0.525
 6      0.55 0.367 0.733
 7      0.6  0.420 0.780
 8      0.45 0.267 0.633
 9      0.5  0.316 0.684
10      0.35 0.175 0.525
# ℹ 4,990 more rows
…
## define parameters to use in our function
n <- 20 # sample size
p <- 0.75
alpha <- 0.1 # used to construct 1 -alpha CI (how much should be in the tails)

## generate 5000 sample proportions and 5000 associated C.I.
nsim <- 5000 # the number of simulations

many_ci_df <- map(1:nsim,
                  \(i) generate_onesamp_cis(n = n, p = p, alpha = alpha)) |>
  bind_rows()
many_ci_df

# A tibble: 5,000 × 3
   point_est    lb    ub
       <dbl> <dbl> <dbl>
 1      0.8  0.653 0.947
 2      0.8  0.653 0.947
 3      0.8  0.653 0.947
 4      0.8  0.653 0.947
 5      0.85 0.719 0.981
 6      0.65 0.475 0.825
 7      0.7  0.531 0.869
 8      0.8  0.653 0.947
 9      0.55 0.367 0.733
10      0.7  0.531 0.869
# ℹ 4,990 more rows
…
